Total	178243143	89125894	89117249
A	0.319496	0.357088	0.281899
B	0.180195	0.162873	0.197519
C	0.130497	0.150972	0.110020
D	0.092856	0.092270	0.093441
E	0.102192	0.103475	0.100909
F	0.087751	0.089494	0.086007
G1	0.086813	0.087604	0.086021
G2	0.084030	0.085450	0.082611
BTB1	nan	nan
BTB2	nan	nan
Total	0
